{
  "kind": "collectionType",
  "collectionName": "writers",
  "info": {
    "name": "Writer",
    "description": ""
  },
  "options": {
    "increments": true,
    "timestamps": true,
    "draftAndPublish": false
  },
  "attributes": {
    "name": {
      "type": "string"
    },
    "articles": {
      "via": "author",
      "collection": "article"
    },
    "email": {
      "type": "string"
    }
  }
}
